Chapter 4 Aggregating | Data Manipulation with SQL
…
35
35
35
35
35

This is much like the rowwise mechanism introduced since dplyr 1.0

crayon <- readr::read_csv("data/crayons.csv")
crayon %>%
  rowwise() %>% 
  mutate(dominant = max(c(red, green, blue)),
         `least used` = min(c(red, green, blue)))
#> # A tibble: 120 x 8
#> # Rowwise: 
#>    color            hex      red green  blue  pack dominant `least used`
#>    <chr>            <chr>  <dbl> <dbl> <dbl> <dbl>    <dbl>        <dbl>
#>  1 Almond           EFDBC5   239   219   197   120      239          197
#>  2 Antique Brass    CD9575   205   149   117   120      205          117
#>  3 Apricot          FDD9B5   253   217   181    24      253          181
#>  4 Aquamarine       78DBE2   120   219   226   120      226          120
#>  5 Asparagus        87A96B   135   169   107    64      169          107
#>  6 Atomic Tangerine FFA474   255   164   116    96      255          116
#>  7 Banana Mania     FAE7B5   250   231   181   120      250          181
#>  8 Beaver           9F8170   159   129   112   120      159          112
#>  9 Bittersweet      FD7C6E   253   124   110    64      253          110
#> 10 Black            232323    35    35    35     8       35           35
#> # ... with 110 more rows
…
We may question the data quality of us_counties_2010 cencus: specifically, can there be repetition of observations on counties on the state level? We may want to use DISTINCT(geo_name) and GROUP BY state_us_abbreviation to eliminate those repetitions:

-- not run
SELECT DISTINCT(geo_name) 
FROM us_counties_2010
GROUP BY state_us_abbreviation

This works in dplyr

# dplyr
us_counties_2010 <- readr::read_csv("data/us_counties_2010.csv")
us_counties_2010 %>% 
  group_by(state_us_abbreviation) %>% 
  distinct(geo_name)
#> # A tibble: 3,143 x 2
#> # Groups:   state_us_abbreviation [51]
#>    geo_name        state_us_abbreviation
#>    <chr>           <chr>                
#>  1 Autauga County  AL                   
#>  2 Baldwin County  AL                   
#>  3 Barbour County  AL                   
#>  4 Bibb County     AL                   
#>  5 Blount County   AL                   
#>  6 Bullock County  AL                   
#>  7 Butler County   AL                   
#>  8 Calhoun County  AL                   
#>  9 Chambers County AL                   
#> 10 Cherokee County AL                   
#> # ... with 3,133 more rows
