…
</div>




```r
# dplyr
readr::read_csv("data/iris.csv") %>% 
  mutate(rank = rank(desc(petal_length))) %>% 
  group_by(species) %>% 
  arrange(rank) %>% 
  select(id, petal_length, rank)
#> # A tibble: 150 x 4
#> # Groups:   species [3]
#>    species      id petal_length  rank
#>    <chr>     <dbl>        <dbl> <dbl>
#>  1 virginica   119          6.9   1  
#>  2 virginica   118          6.7   2.5
#>  3 virginica   123          6.7   2.5
#>  4 virginica   106          6.6   4  
#>  5 virginica   132          6.4   5  
#>  6 virginica   108          6.3   6  
#>  7 virginica   110          6.1   8  
#>  8 virginica   131          6.1   8  
#>  9 virginica   136          6.1   8  
#> 10 virginica   101          6    10.5
#> # ... with 140 more rows
```
